\relax 
\providecommand\hyper@newdestlabel[2]{}
\providecommand\HyperFirstAtBeginDocument{\AtBeginDocument}
\HyperFirstAtBeginDocument{\ifx\hyper@anchor\@undefined
\global\let\oldcontentsline\contentsline
\gdef\contentsline#1#2#3#4{\oldcontentsline{#1}{#2}{#3}}
\global\let\oldnewlabel\newlabel
\gdef\newlabel#1#2{\newlabelxx{#1}#2}
\gdef\newlabelxx#1#2#3#4#5#6{\oldnewlabel{#1}{{#2}{#3}}}
\AtEndDocument{\ifx\hyper@anchor\@undefined
\let\contentsline\oldcontentsline
\let\newlabel\oldnewlabel
\fi}
\fi}
\global\let\hyper@last\relax 
\gdef\HyperFirstAtBeginDocument#1{#1}
\providecommand\HyField@AuxAddToFields[1]{}
\providecommand\HyField@AuxAddToCoFields[2]{}
\@writefile{toc}{\contentsline {section}{\numberline {1}Introduction to Electrostatics}{1}{section.1}\protected@file@percent }
\@writefile{loe}{\contentsline {problem}{\ifthmt@listswap Problem\nobreakspace  {}1.1\else \numberline {1.1}Problem\fi }{1}{problem.1.1}\protected@file@percent }
\newlabel{problem:1_1}{{1.1}{1}{}{problem.1.1}{}}
\@writefile{loe}{\contentsline {problem}{\ifthmt@listswap Problem\nobreakspace  {}1.2\else \numberline {1.2}Problem\fi }{2}{problem.1.2}\protected@file@percent }
\@writefile{loe}{\contentsline {problem}{\ifthmt@listswap Problem\nobreakspace  {}1.3\else \numberline {1.3}Problem\fi }{2}{problem.1.3}\protected@file@percent }
\@writefile{loe}{\contentsline {problem}{\ifthmt@listswap Problem\nobreakspace  {}1.4\else \numberline {1.4}Problem\fi }{3}{problem.1.4}\protected@file@percent }
\newlabel{problem:1_4}{{1.4}{3}{}{problem.1.4}{}}
\@writefile{lof}{\contentsline {figure}{\numberline {1}{\ignorespaces Sketch of the electric fields in Problem \ref  {problem:1_4} for spheres of radius $\qty {1}{\m }$ and charge $\qty {1}{C}$. The blue line shows the field outside for all spheres, the orange line is the field inside a uniformly charged sphere, green and red lines depict cases $n=-2$ and $n=2$ respectively. Null field inside the conducting sphere is not shown.\relax }}{4}{figure.caption.3}\protected@file@percent }
\providecommand*\caption@xref[2]{\@setref\relax\@undefined{#1}}
\newlabel{fig:problem_1_4}{{1}{4}{Sketch of the electric fields in Problem \ref {problem:1_4} for spheres of radius $\qty {1}{\m }$ and charge $\qty {1}{C}$. The blue line shows the field outside for all spheres, the orange line is the field inside a uniformly charged sphere, green and red lines depict cases $n=-2$ and $n=2$ respectively. Null field inside the conducting sphere is not shown.\relax }{figure.caption.3}{}}
\@writefile{loe}{\contentsline {problem}{\ifthmt@listswap Problem\nobreakspace  {}1.5\else \numberline {1.5}Problem\fi }{5}{problem.1.5}\protected@file@percent }
\@writefile{loe}{\contentsline {problem}{\ifthmt@listswap Problem\nobreakspace  {}1.6\else \numberline {1.6}Problem\fi }{5}{problem.1.6}\protected@file@percent }
\newlabel{problem:1_6}{{1.6}{5}{}{problem.1.6}{}}
\@writefile{loe}{\contentsline {problem}{\ifthmt@listswap Problem\nobreakspace  {}1.7\else \numberline {1.7}Problem\fi }{7}{problem.1.7}\protected@file@percent }
\newlabel{problem:1_7}{{1.7}{7}{}{problem.1.7}{}}
\newlabel{eq:phi_parallel_cylinders}{{1.33}{7}{Introduction to Electrostatics}{equation.1.33}{}}
\newlabel{eq:two_cylinders_cap}{{1.34}{8}{Introduction to Electrostatics}{equation.1.34}{}}
\@writefile{loe}{\contentsline {problem}{\ifthmt@listswap Problem\nobreakspace  {}1.8\else \numberline {1.8}Problem\fi }{8}{problem.1.8}\protected@file@percent }
\newlabel{problem:1_8}{{1.8}{8}{}{problem.1.8}{}}
\@writefile{lof}{\contentsline {figure}{\numberline {2}{\ignorespaces Sketch of the energy densities in Problem \ref  {problem:1_8} for charge of $\qty {1}{C}$ and unit dimensions.\relax }}{8}{figure.caption.4}\protected@file@percent }
\newlabel{fig:problem_1_8}{{2}{8}{Sketch of the energy densities in Problem \ref {problem:1_8} for charge of $\qty {1}{C}$ and unit dimensions.\relax }{figure.caption.4}{}}
\@writefile{loe}{\contentsline {problem}{\ifthmt@listswap Problem\nobreakspace  {}1.9\else \numberline {1.9}Problem\fi }{9}{problem.1.9}\protected@file@percent }
\@writefile{loe}{\contentsline {theorem}{\ifthmt@listswap Theorem\nobreakspace  {}1.10\else \numberline {1.10}Theorem\fi \thmtformatoptarg {Mean Value}}{10}{theorem.1.10}\protected@file@percent }
\newlabel{theorem:mean_value}{{1.10}{10}{Mean Value}{theorem.1.10}{}}
\@writefile{loe}{\contentsline {problem}{\ifthmt@listswap Problem\nobreakspace  {}1.11\else \numberline {1.11}Problem\fi }{10}{problem.1.11}\protected@file@percent }
\@writefile{loe}{\contentsline {theorem}{\ifthmt@listswap Theorem\nobreakspace  {}1.12\else \numberline {1.12}Theorem\fi \thmtformatoptarg {Green's Reciprocation}}{11}{theorem.1.12}\protected@file@percent }
\newlabel{theorem:green_reciprocation}{{1.12}{11}{Green's Reciprocation}{theorem.1.12}{}}
\@writefile{loe}{\contentsline {problem}{\ifthmt@listswap Problem\nobreakspace  {}1.13\else \numberline {1.13}Problem\fi }{11}{problem.1.13}\protected@file@percent }
\newlabel{problem:1_13}{{1.13}{11}{}{problem.1.13}{}}
\@writefile{loe}{\contentsline {problem}{\ifthmt@listswap Problem\nobreakspace  {}1.14\else \numberline {1.14}Problem\fi }{12}{problem.1.14}\protected@file@percent }
\newlabel{problem:1_14}{{1.14}{12}{}{problem.1.14}{}}
\newlabel{eq:green_symmetry}{{1.58}{13}{Introduction to Electrostatics}{equation.1.58}{}}
\@writefile{loe}{\contentsline {theorem}{\ifthmt@listswap Theorem\nobreakspace  {}1.15\else \numberline {1.15}Theorem\fi \thmtformatoptarg {Thomson}}{13}{theorem.1.15}\protected@file@percent }
\newlabel{theorem:thomson}{{1.15}{13}{Thomson}{theorem.1.15}{}}
\@writefile{loe}{\contentsline {theorem}{\ifthmt@listswap Theorem\nobreakspace  {}1.16\else \numberline {1.16}Theorem\fi }{14}{theorem.1.16}\protected@file@percent }
\@writefile{loe}{\contentsline {problem}{\ifthmt@listswap Problem\nobreakspace  {}1.17\else \numberline {1.17}Problem\fi }{14}{problem.1.17}\protected@file@percent }
\newlabel{problem:1_17}{{1.17}{14}{}{problem.1.17}{}}
\@writefile{loe}{\contentsline {problem}{\ifthmt@listswap Problem\nobreakspace  {}1.18\else \numberline {1.18}Problem\fi }{15}{problem.1.18}\protected@file@percent }
\newlabel{problem:1_18}{{1.18}{15}{}{problem.1.18}{}}
\@writefile{loe}{\contentsline {problem}{\ifthmt@listswap Problem\nobreakspace  {}1.19\else \numberline {1.19}Problem\fi }{17}{problem.1.19}\protected@file@percent }
\@writefile{loe}{\contentsline {problem}{\ifthmt@listswap Problem\nobreakspace  {}1.20\else \numberline {1.20}Problem\fi }{17}{problem.1.20}\protected@file@percent }
\@writefile{loe}{\contentsline {problem}{\ifthmt@listswap Problem\nobreakspace  {}1.21\else \numberline {1.21}Problem\fi }{19}{problem.1.21}\protected@file@percent }
\newlabel{problem:1_21}{{1.21}{19}{}{problem.1.21}{}}
\@writefile{loe}{\contentsline {problem}{\ifthmt@listswap Problem\nobreakspace  {}1.22\else \numberline {1.22}Problem\fi }{19}{problem.1.22}\protected@file@percent }
\newlabel{problem:1_22}{{1.22}{19}{}{problem.1.22}{}}
\@writefile{lof}{\contentsline {figure}{\numberline {3}{\ignorespaces Plots of variational (blue) and exact (orange) potentials of Problem \ref  {problem:1_21} at $y=0.25$ (left) and $y=0.5$ (right).\relax }}{20}{figure.caption.5}\protected@file@percent }
\newlabel{fig:problem_1_21}{{3}{20}{Plots of variational (blue) and exact (orange) potentials of Problem \ref {problem:1_21} at $y=0.25$ (left) and $y=0.5$ (right).\relax }{figure.caption.5}{}}
\@writefile{toc}{\contentsline {section}{\numberline {2}Boundary-Value Problems in Electrostatics: I}{22}{section.2}\protected@file@percent }
\@writefile{loe}{\contentsline {problem}{\ifthmt@listswap Problem\nobreakspace  {}2.1\else \numberline {2.1}Problem\fi }{22}{problem.2.1}\protected@file@percent }
\newlabel{problem:2_1}{{2.1}{22}{}{problem.2.1}{}}
\@writefile{lof}{\contentsline {figure}{\numberline {4}{\ignorespaces Plot of the surface charge density in Problem \ref  {problem:2_1}a for a charge of $\qty {1}{C}$ that is $\qty {1}{\m }$ away.\relax }}{23}{figure.caption.6}\protected@file@percent }
\newlabel{fig:problem_2_1}{{4}{23}{Plot of the surface charge density in Problem \ref {problem:2_1}a for a charge of $\qty {1}{C}$ that is $\qty {1}{\m }$ away.\relax }{figure.caption.6}{}}
\@writefile{loe}{\contentsline {problem}{\ifthmt@listswap Problem\nobreakspace  {}2.2\else \numberline {2.2}Problem\fi }{25}{problem.2.2}\protected@file@percent }
\newlabel{problem:2_2}{{2.2}{25}{}{problem.2.2}{}}
\newlabel{eq:vec_angle}{{2.14}{25}{Boundary-Value Problems in Electrostatics: I}{equation.2.14}{}}
\@writefile{loe}{\contentsline {problem}{\ifthmt@listswap Problem\nobreakspace  {}2.3\else \numberline {2.3}Problem\fi }{27}{problem.2.3}\protected@file@percent }
\newlabel{problem:2_3}{{2.3}{27}{}{problem.2.3}{}}
\@writefile{lof}{\contentsline {figure}{\numberline {5}{\ignorespaces Plot of the Problem \ref  {problem:2_3}b for $y_0 =1$ (blue) and $y_0 = 2$ (orange).\relax }}{28}{figure.caption.7}\protected@file@percent }
\newlabel{fig:problem_2_3}{{5}{28}{Plot of the Problem \ref {problem:2_3}b for $y_0 =1$ (blue) and $y_0 = 2$ (orange).\relax }{figure.caption.7}{}}
\@writefile{loe}{\contentsline {problem}{\ifthmt@listswap Problem\nobreakspace  {}2.5\else \numberline {2.5}Problem\fi }{30}{problem.2.5}\protected@file@percent }
\@writefile{loe}{\contentsline {problem}{\ifthmt@listswap Problem\nobreakspace  {}2.7\else \numberline {2.7}Problem\fi }{32}{problem.2.7}\protected@file@percent }
\newlabel{problem:2_7}{{2.7}{32}{}{problem.2.7}{}}
\newlabel{eq:2_7_pot_phi_dep}{{2.47}{33}{Boundary-Value Problems in Electrostatics: I}{equation.2.47}{}}
\newlabel{eq:2_7_pot_phi_indep}{{2.55}{34}{Boundary-Value Problems in Electrostatics: I}{equation.2.55}{}}
\@writefile{loe}{\contentsline {problem}{\ifthmt@listswap Problem\nobreakspace  {}2.8\else \numberline {2.8}Problem\fi }{36}{problem.2.8}\protected@file@percent }
\newlabel{problem:2_8}{{2.8}{36}{}{problem.2.8}{}}
\@writefile{loe}{\contentsline {problem}{\ifthmt@listswap Problem\nobreakspace  {}2.9\else \numberline {2.9}Problem\fi }{40}{problem.2.9}\protected@file@percent }
\@writefile{loe}{\contentsline {problem}{\ifthmt@listswap Problem\nobreakspace  {}2.10\else \numberline {2.10}Problem\fi }{40}{problem.2.10}\protected@file@percent }
\newlabel{problem:2_10}{{2.10}{40}{}{problem.2.10}{}}
\@writefile{lof}{\contentsline {figure}{\numberline {6}{\ignorespaces Plots of the surface charge densities in Problem \ref  {problem:2_10} for a constant field of one volt per meter and a boss of one-meter radius.\relax }}{41}{figure.caption.8}\protected@file@percent }
\newlabel{fig:problem_2_10}{{6}{41}{Plots of the surface charge densities in Problem \ref {problem:2_10} for a constant field of one volt per meter and a boss of one-meter radius.\relax }{figure.caption.8}{}}
\@writefile{loe}{\contentsline {problem}{\ifthmt@listswap Problem\nobreakspace  {}2.11\else \numberline {2.11}Problem\fi }{44}{problem.2.11}\protected@file@percent }
\newlabel{problem:2_11}{{2.11}{44}{}{problem.2.11}{}}
\@writefile{lof}{\contentsline {figure}{\numberline {7}{\ignorespaces Plot of the surface charge density versus azimuthal angle in Problem \ref  {problem:2_11}c for $R/b$ = 2 (blue) and $R/b$ = 4 (orange).\relax }}{44}{figure.caption.9}\protected@file@percent }
\newlabel{fig:problem_2_11}{{7}{44}{Plot of the surface charge density versus azimuthal angle in Problem \ref {problem:2_11}c for $R/b$ = 2 (blue) and $R/b$ = 4 (orange).\relax }{figure.caption.9}{}}
\@writefile{loe}{\contentsline {problem}{\ifthmt@listswap Problem\nobreakspace  {}2.12\else \numberline {2.12}Problem\fi }{47}{problem.2.12}\protected@file@percent }
\newlabel{problem:2_12}{{2.12}{47}{}{problem.2.12}{}}
\@writefile{loe}{\contentsline {problem}{\ifthmt@listswap Problem\nobreakspace  {}2.13\else \numberline {2.13}Problem\fi }{48}{problem.2.13}\protected@file@percent }
\newlabel{problem:2_13}{{2.13}{48}{}{problem.2.13}{}}
\newlabel{eq:2_13_torture_integral_1}{{2.131}{50}{Boundary-Value Problems in Electrostatics: I}{equation.2.131}{}}
\newlabel{eq:2_13_torture_integral_2}{{2.134}{51}{Boundary-Value Problems in Electrostatics: I}{equation.2.134}{}}
\@writefile{loe}{\contentsline {problem}{\ifthmt@listswap Problem\nobreakspace  {}2.14\else \numberline {2.14}Problem\fi }{52}{problem.2.14}\protected@file@percent }
\newlabel{problem:2_14}{{2.14}{52}{}{problem.2.14}{}}
\@writefile{lof}{\contentsline {figure}{\numberline {8}{\ignorespaces Field lines and equipotentials in Problem \ref  {problem:2_14}.\relax }}{53}{figure.caption.10}\protected@file@percent }
\newlabel{fig:problem_2_14}{{8}{53}{Field lines and equipotentials in Problem \ref {problem:2_14}.\relax }{figure.caption.10}{}}
\@writefile{loe}{\contentsline {problem}{\ifthmt@listswap Problem\nobreakspace  {}2.15\else \numberline {2.15}Problem\fi }{55}{problem.2.15}\protected@file@percent }
\newlabel{problem:2_15}{{2.15}{55}{}{problem.2.15}{}}
\@writefile{loe}{\contentsline {problem}{\ifthmt@listswap Problem\nobreakspace  {}2.16\else \numberline {2.16}Problem\fi }{58}{problem.2.16}\protected@file@percent }
\newlabel{problem:2_16}{{2.16}{58}{}{problem.2.16}{}}
\@writefile{loe}{\contentsline {problem}{\ifthmt@listswap Problem\nobreakspace  {}2.17\else \numberline {2.17}Problem\fi }{58}{problem.2.17}\protected@file@percent }
\newlabel{problem:2_17}{{2.17}{58}{}{problem.2.17}{}}
\newlabel{eq:2d_green}{{2.174}{60}{Boundary-Value Problems in Electrostatics: I}{equation.2.174}{}}
\newlabel{eq:radial_diffeq}{{2.179}{61}{Boundary-Value Problems in Electrostatics: I}{equation.2.179}{}}
\newlabel{eq:2d_green_radial}{{2.181}{61}{Boundary-Value Problems in Electrostatics: I}{equation.2.181}{}}
\newlabel{eq:2d_green_radial_zero}{{2.182}{61}{Boundary-Value Problems in Electrostatics: I}{equation.2.182}{}}
\newlabel{eq:harmonic_taylor}{{2.193}{62}{Boundary-Value Problems in Electrostatics: I}{equation.2.193}{}}
\newlabel{eq:cos_rule_complex}{{2.195}{63}{Boundary-Value Problems in Electrostatics: I}{equation.2.195}{}}
\@writefile{loe}{\contentsline {problem}{\ifthmt@listswap Problem\nobreakspace  {}2.18\else \numberline {2.18}Problem\fi }{63}{problem.2.18}\protected@file@percent }
\newlabel{problem:2_18}{{2.18}{63}{}{problem.2.18}{}}
\@writefile{loe}{\contentsline {problem}{\ifthmt@listswap Problem\nobreakspace  {}2.19\else \numberline {2.19}Problem\fi }{67}{problem.2.19}\protected@file@percent }
\@writefile{loe}{\contentsline {problem}{\ifthmt@listswap Problem\nobreakspace  {}2.20\else \numberline {2.20}Problem\fi }{68}{problem.2.20}\protected@file@percent }
\@writefile{loe}{\contentsline {problem}{\ifthmt@listswap Problem\nobreakspace  {}2.21\else \numberline {2.21}Problem\fi }{70}{problem.2.21}\protected@file@percent }
\@writefile{loe}{\contentsline {problem}{\ifthmt@listswap Problem\nobreakspace  {}2.22\else \numberline {2.22}Problem\fi }{71}{problem.2.22}\protected@file@percent }
\newlabel{problem:2_22}{{2.22}{71}{}{problem.2.22}{}}
\@writefile{lof}{\contentsline {figure}{\numberline {9}{\ignorespaces Plot of the field lines in Problem \ref  {problem:2_22}.\relax }}{72}{figure.caption.11}\protected@file@percent }
\newlabel{fig:problem_2_22_1}{{9}{72}{Plot of the field lines in Problem \ref {problem:2_22}.\relax }{figure.caption.11}{}}
\@writefile{lof}{\contentsline {figure}{\numberline {10}{\ignorespaces Plot of the radial field along the $z$-axis in Problem \ref  {problem:2_22} for a potential of one volt and a sphere of radius of one meter.\relax }}{73}{figure.caption.12}\protected@file@percent }
\newlabel{fig:problem_2_22_2}{{10}{73}{Plot of the radial field along the $z$-axis in Problem \ref {problem:2_22} for a potential of one volt and a sphere of radius of one meter.\relax }{figure.caption.12}{}}
\@writefile{loe}{\contentsline {problem}{\ifthmt@listswap Problem\nobreakspace  {}2.23\else \numberline {2.23}Problem\fi }{75}{problem.2.23}\protected@file@percent }
\newlabel{problem:2_23}{{2.23}{75}{}{problem.2.23}{}}
\@writefile{loe}{\contentsline {problem}{\ifthmt@listswap Problem\nobreakspace  {}2.24\else \numberline {2.24}Problem\fi }{78}{problem.2.24}\protected@file@percent }
\newlabel{problem:2_24}{{2.24}{78}{}{problem.2.24}{}}
\@writefile{loe}{\contentsline {problem}{\ifthmt@listswap Problem\nobreakspace  {}2.25\else \numberline {2.25}Problem\fi }{79}{problem.2.25}\protected@file@percent }
\newlabel{problem:2_25}{{2.25}{79}{}{problem.2.25}{}}
\@writefile{loe}{\contentsline {problem}{\ifthmt@listswap Problem\nobreakspace  {}2.26\else \numberline {2.26}Problem\fi }{82}{problem.2.26}\protected@file@percent }
\newlabel{problem:2_26}{{2.26}{82}{}{problem.2.26}{}}
\@writefile{lof}{\contentsline {figure}{\numberline {11}{\ignorespaces Plot of surface charge density in Problem \ref  {problem:2_26}c for a half-cylinder of radius of one meter and a potential of one volt far away.\relax }}{83}{figure.caption.13}\protected@file@percent }
\newlabel{fig:problem_2_26}{{11}{83}{Plot of surface charge density in Problem \ref {problem:2_26}c for a half-cylinder of radius of one meter and a potential of one volt far away.\relax }{figure.caption.13}{}}
\@writefile{loe}{\contentsline {problem}{\ifthmt@listswap Problem\nobreakspace  {}2.27\else \numberline {2.27}Problem\fi }{85}{problem.2.27}\protected@file@percent }
\newlabel{problem:2_27}{{2.27}{85}{}{problem.2.27}{}}
\@writefile{lof}{\contentsline {figure}{\numberline {12}{\ignorespaces Plot of the Problem \ref  {problem:2_27}a for a half-cylinder of radius of one meter and a potential of one volt far away.\relax }}{85}{figure.caption.14}\protected@file@percent }
\newlabel{fig:problem_2_27}{{12}{85}{Plot of the Problem \ref {problem:2_27}a for a half-cylinder of radius of one meter and a potential of one volt far away.\relax }{figure.caption.14}{}}
\@writefile{loe}{\contentsline {problem}{\ifthmt@listswap Problem\nobreakspace  {}2.28\else \numberline {2.28}Problem\fi }{86}{problem.2.28}\protected@file@percent }
\newlabel{problem:2_28}{{2.28}{86}{}{problem.2.28}{}}
\@writefile{toc}{\contentsline {section}{\numberline {3}Boundary-Value Problems in Electrostatics: II}{87}{section.3}\protected@file@percent }
\@writefile{loe}{\contentsline {problem}{\ifthmt@listswap Problem\nobreakspace  {}3.1\else \numberline {3.1}Problem\fi }{87}{problem.3.1}\protected@file@percent }
\newlabel{problem:3_1}{{3.1}{87}{}{problem.3.1}{}}
\newlabel{eq:legendre_upper_half}{{3.3}{88}{Boundary-Value Problems in Electrostatics: II}{equation.3.3}{}}
\@writefile{loe}{\contentsline {problem}{\ifthmt@listswap Problem\nobreakspace  {}3.2\else \numberline {3.2}Problem\fi }{88}{problem.3.2}\protected@file@percent }
\@writefile{loe}{\contentsline {problem}{\ifthmt@listswap Problem\nobreakspace  {}3.3\else \numberline {3.3}Problem\fi }{92}{problem.3.3}\protected@file@percent }
\@writefile{loe}{\contentsline {problem}{\ifthmt@listswap Problem\nobreakspace  {}3.4\else \numberline {3.4}Problem\fi }{94}{problem.3.4}\protected@file@percent }
\@writefile{loe}{\contentsline {problem}{\ifthmt@listswap Problem\nobreakspace  {}3.5\else \numberline {3.5}Problem\fi }{98}{problem.3.5}\protected@file@percent }
\@writefile{loe}{\contentsline {problem}{\ifthmt@listswap Problem\nobreakspace  {}3.6\else \numberline {3.6}Problem\fi }{99}{problem.3.6}\protected@file@percent }
\@writefile{loe}{\contentsline {problem}{\ifthmt@listswap Problem\nobreakspace  {}3.7\else \numberline {3.7}Problem\fi }{101}{problem.3.7}\protected@file@percent }
\newlabel{problem:3_7}{{3.7}{101}{}{problem.3.7}{}}
\@writefile{loe}{\contentsline {problem}{\ifthmt@listswap Problem\nobreakspace  {}3.8\else \numberline {3.8}Problem\fi }{103}{problem.3.8}\protected@file@percent }
\newlabel{problem:3_8}{{3.8}{103}{}{problem.3.8}{}}
\newlabel{eq:log_legendre}{{3.102}{105}{Boundary-Value Problems in Electrostatics: II}{equation.3.102}{}}
\@writefile{loe}{\contentsline {problem}{\ifthmt@listswap Problem\nobreakspace  {}3.9\else \numberline {3.9}Problem\fi }{106}{problem.3.9}\protected@file@percent }
\newlabel{problem:3_9}{{3.9}{106}{}{problem.3.9}{}}
\@writefile{loe}{\contentsline {problem}{\ifthmt@listswap Problem\nobreakspace  {}3.10\else \numberline {3.10}Problem\fi }{107}{problem.3.10}\protected@file@percent }
\@writefile{loe}{\contentsline {problem}{\ifthmt@listswap Problem\nobreakspace  {}3.11\else \numberline {3.11}Problem\fi }{109}{problem.3.11}\protected@file@percent }
\newlabel{problem:3_11}{{3.11}{109}{}{problem.3.11}{}}
\newlabel{eq:bessel_inner_product}{{3.139}{111}{Boundary-Value Problems in Electrostatics: II}{equation.3.139}{}}
\newlabel{eq:bessel_norm}{{3.141}{112}{Boundary-Value Problems in Electrostatics: II}{equation.3.141}{}}
\@writefile{loe}{\contentsline {problem}{\ifthmt@listswap Problem\nobreakspace  {}3.12\else \numberline {3.12}Problem\fi }{112}{problem.3.12}\protected@file@percent }
\newlabel{problem:3_12}{{3.12}{112}{}{problem.3.12}{}}
\newlabel{eq:3_12_expansion}{{3.163}{115}{Boundary-Value Problems in Electrostatics: II}{equation.3.163}{}}
\@writefile{loe}{\contentsline {problem}{\ifthmt@listswap Problem\nobreakspace  {}3.13\else \numberline {3.13}Problem\fi }{116}{problem.3.13}\protected@file@percent }
\@writefile{loe}{\contentsline {problem}{\ifthmt@listswap Problem\nobreakspace  {}3.14\else \numberline {3.14}Problem\fi }{117}{problem.3.14}\protected@file@percent }
\newlabel{eq:p3_14_sph_pot}{{3.190}{121}{Boundary-Value Problems in Electrostatics: II}{equation.3.190}{}}
\newlabel{eq:p3_14_sph_pot_multi}{{3.195}{121}{Boundary-Value Problems in Electrostatics: II}{equation.3.195}{}}
\@writefile{loe}{\contentsline {problem}{\ifthmt@listswap Problem\nobreakspace  {}3.15\else \numberline {3.15}Problem\fi }{123}{problem.3.15}\protected@file@percent }
\@writefile{loe}{\contentsline {problem}{\ifthmt@listswap Problem\nobreakspace  {}3.16\else \numberline {3.16}Problem\fi }{123}{problem.3.16}\protected@file@percent }
\newlabel{problem:3_16}{{3.16}{123}{}{problem.3.16}{}}
\newlabel{eq:3_16_lim}{{3.206}{125}{Boundary-Value Problems in Electrostatics: II}{equation.3.206}{}}
\@writefile{loe}{\contentsline {problem}{\ifthmt@listswap Problem\nobreakspace  {}3.17\else \numberline {3.17}Problem\fi }{127}{problem.3.17}\protected@file@percent }
\newlabel{problem:3_17}{{3.17}{127}{}{problem.3.17}{}}
\@writefile{loe}{\contentsline {problem}{\ifthmt@listswap Problem\nobreakspace  {}3.18\else \numberline {3.18}Problem\fi }{130}{problem.3.18}\protected@file@percent }
\newlabel{problem:3_18}{{3.18}{130}{}{problem.3.18}{}}
\@writefile{loe}{\contentsline {problem}{\ifthmt@listswap Problem\nobreakspace  {}3.19\else \numberline {3.19}Problem\fi }{134}{problem.3.19}\protected@file@percent }
\newlabel{problem:3_19}{{3.19}{134}{}{problem.3.19}{}}
\@writefile{loe}{\contentsline {problem}{\ifthmt@listswap Problem\nobreakspace  {}3.20\else \numberline {3.20}Problem\fi }{137}{problem.3.20}\protected@file@percent }
\newlabel{problem:3_20}{{3.20}{137}{}{problem.3.20}{}}
\@writefile{loe}{\contentsline {problem}{\ifthmt@listswap Problem\nobreakspace  {}3.21\else \numberline {3.21}Problem\fi }{139}{problem.3.21}\protected@file@percent }
\@writefile{loe}{\contentsline {problem}{\ifthmt@listswap Problem\nobreakspace  {}3.22\else \numberline {3.22}Problem\fi }{143}{problem.3.22}\protected@file@percent }
\@writefile{loe}{\contentsline {problem}{\ifthmt@listswap Problem\nobreakspace  {}3.23\else \numberline {3.23}Problem\fi }{144}{problem.3.23}\protected@file@percent }
\newlabel{problem:3_23}{{3.23}{144}{}{problem.3.23}{}}
\@writefile{loe}{\contentsline {problem}{\ifthmt@listswap Problem\nobreakspace  {}3.24\else \numberline {3.24}Problem\fi }{148}{problem.3.24}\protected@file@percent }
\@writefile{loe}{\contentsline {problem}{\ifthmt@listswap Problem\nobreakspace  {}3.25\else \numberline {3.25}Problem\fi }{150}{problem.3.25}\protected@file@percent }
\@writefile{loe}{\contentsline {problem}{\ifthmt@listswap Problem\nobreakspace  {}3.26\else \numberline {3.26}Problem\fi }{151}{problem.3.26}\protected@file@percent }
\newlabel{problem:3_26}{{3.26}{151}{}{problem.3.26}{}}
\@writefile{loe}{\contentsline {problem}{\ifthmt@listswap Problem\nobreakspace  {}3.27\else \numberline {3.27}Problem\fi }{155}{problem.3.27}\protected@file@percent }
\newlabel{problem:3_27}{{3.27}{155}{}{problem.3.27}{}}
\@writefile{lof}{\contentsline {figure}{\numberline {13}{\ignorespaces Plot of the electric field lines in Problem \ref  {problem:3_27}.\relax }}{156}{figure.caption.15}\protected@file@percent }
\newlabel{fig:problem_3_27}{{13}{156}{Plot of the electric field lines in Problem \ref {problem:3_27}.\relax }{figure.caption.15}{}}
\@writefile{toc}{\contentsline {section}{\numberline {4}Multipoles, Electrostatics of Macroscopic Media, Dielectrics}{157}{section.4}\protected@file@percent }
\@writefile{loe}{\contentsline {problem}{\ifthmt@listswap Problem\nobreakspace  {}4.1\else \numberline {4.1}Problem\fi }{157}{problem.4.1}\protected@file@percent }
\@writefile{loe}{\contentsline {problem}{\ifthmt@listswap Problem\nobreakspace  {}4.2\else \numberline {4.2}Problem\fi }{158}{problem.4.2}\protected@file@percent }
\@writefile{loe}{\contentsline {problem}{\ifthmt@listswap Problem\nobreakspace  {}4.3\else \numberline {4.3}Problem\fi }{158}{problem.4.3}\protected@file@percent }
\@writefile{loe}{\contentsline {problem}{\ifthmt@listswap Problem\nobreakspace  {}4.4\else \numberline {4.4}Problem\fi }{158}{problem.4.4}\protected@file@percent }
\@writefile{loe}{\contentsline {problem}{\ifthmt@listswap Problem\nobreakspace  {}4.5\else \numberline {4.5}Problem\fi }{159}{problem.4.5}\protected@file@percent }
\@writefile{loe}{\contentsline {problem}{\ifthmt@listswap Problem\nobreakspace  {}4.6\else \numberline {4.6}Problem\fi }{159}{problem.4.6}\protected@file@percent }
\@writefile{loe}{\contentsline {problem}{\ifthmt@listswap Problem\nobreakspace  {}4.7\else \numberline {4.7}Problem\fi }{160}{problem.4.7}\protected@file@percent }
\@writefile{loe}{\contentsline {problem}{\ifthmt@listswap Problem\nobreakspace  {}4.8\else \numberline {4.8}Problem\fi }{160}{problem.4.8}\protected@file@percent }
\@writefile{loe}{\contentsline {problem}{\ifthmt@listswap Problem\nobreakspace  {}4.9\else \numberline {4.9}Problem\fi }{161}{problem.4.9}\protected@file@percent }
\@writefile{loe}{\contentsline {problem}{\ifthmt@listswap Problem\nobreakspace  {}4.10\else \numberline {4.10}Problem\fi }{161}{problem.4.10}\protected@file@percent }
\@writefile{loe}{\contentsline {problem}{\ifthmt@listswap Problem\nobreakspace  {}4.11\else \numberline {4.11}Problem\fi }{161}{problem.4.11}\protected@file@percent }
\@writefile{loe}{\contentsline {problem}{\ifthmt@listswap Problem\nobreakspace  {}4.12\else \numberline {4.12}Problem\fi }{162}{problem.4.12}\protected@file@percent }
\@writefile{loe}{\contentsline {problem}{\ifthmt@listswap Problem\nobreakspace  {}4.13\else \numberline {4.13}Problem\fi }{162}{problem.4.13}\protected@file@percent }
\@writefile{toc}{\contentsline {section}{\numberline {5}Magnetostatics, Faraday's Law, Quasi-Static Fields}{162}{section.5}\protected@file@percent }
\@writefile{loe}{\contentsline {problem}{\ifthmt@listswap Problem\nobreakspace  {}5.1\else \numberline {5.1}Problem\fi }{162}{problem.5.1}\protected@file@percent }
\newlabel{problem:5_1}{{5.1}{162}{}{problem.5.1}{}}
\@writefile{loe}{\contentsline {problem}{\ifthmt@listswap Problem\nobreakspace  {}5.2\else \numberline {5.2}Problem\fi }{163}{problem.5.2}\protected@file@percent }
\newlabel{problem:5_2}{{5.2}{163}{}{problem.5.2}{}}
\@writefile{loe}{\contentsline {problem}{\ifthmt@listswap Problem\nobreakspace  {}5.3\else \numberline {5.3}Problem\fi }{163}{problem.5.3}\protected@file@percent }
\newlabel{problem:5_3}{{5.3}{163}{}{problem.5.3}{}}
\@writefile{loe}{\contentsline {problem}{\ifthmt@listswap Problem\nobreakspace  {}5.4\else \numberline {5.4}Problem\fi }{163}{problem.5.4}\protected@file@percent }
\newlabel{problem:5_4}{{5.4}{163}{}{problem.5.4}{}}
\@writefile{loe}{\contentsline {problem}{\ifthmt@listswap Problem\nobreakspace  {}5.5\else \numberline {5.5}Problem\fi }{164}{problem.5.5}\protected@file@percent }
\@writefile{loe}{\contentsline {problem}{\ifthmt@listswap Problem\nobreakspace  {}5.6\else \numberline {5.6}Problem\fi }{164}{problem.5.6}\protected@file@percent }
\@writefile{loe}{\contentsline {problem}{\ifthmt@listswap Problem\nobreakspace  {}5.7\else \numberline {5.7}Problem\fi }{164}{problem.5.7}\protected@file@percent }
\newlabel{problem:5_7}{{5.7}{164}{}{problem.5.7}{}}
\@writefile{loe}{\contentsline {problem}{\ifthmt@listswap Problem\nobreakspace  {}5.8\else \numberline {5.8}Problem\fi }{165}{problem.5.8}\protected@file@percent }
\newlabel{problem:5_8}{{5.8}{165}{}{problem.5.8}{}}
\@writefile{loe}{\contentsline {problem}{\ifthmt@listswap Problem\nobreakspace  {}5.9\else \numberline {5.9}Problem\fi }{166}{problem.5.9}\protected@file@percent }
\@writefile{loe}{\contentsline {problem}{\ifthmt@listswap Problem\nobreakspace  {}5.10\else \numberline {5.10}Problem\fi }{166}{problem.5.10}\protected@file@percent }
\newlabel{problem:5_10}{{5.10}{166}{}{problem.5.10}{}}
\@writefile{loe}{\contentsline {problem}{\ifthmt@listswap Problem\nobreakspace  {}5.11\else \numberline {5.11}Problem\fi }{167}{problem.5.11}\protected@file@percent }
\newlabel{problem:5_11}{{5.11}{167}{}{problem.5.11}{}}
\@writefile{loe}{\contentsline {problem}{\ifthmt@listswap Problem\nobreakspace  {}5.12\else \numberline {5.12}Problem\fi }{167}{problem.5.12}\protected@file@percent }
\@writefile{loe}{\contentsline {problem}{\ifthmt@listswap Problem\nobreakspace  {}5.13\else \numberline {5.13}Problem\fi }{167}{problem.5.13}\protected@file@percent }
\@writefile{loe}{\contentsline {problem}{\ifthmt@listswap Problem\nobreakspace  {}5.14\else \numberline {5.14}Problem\fi }{168}{problem.5.14}\protected@file@percent }
\newlabel{problem:5_14}{{5.14}{168}{}{problem.5.14}{}}
\@writefile{loe}{\contentsline {problem}{\ifthmt@listswap Problem\nobreakspace  {}5.15\else \numberline {5.15}Problem\fi }{168}{problem.5.15}\protected@file@percent }
\@writefile{loe}{\contentsline {problem}{\ifthmt@listswap Problem\nobreakspace  {}5.16\else \numberline {5.16}Problem\fi }{168}{problem.5.16}\protected@file@percent }
\@writefile{loe}{\contentsline {problem}{\ifthmt@listswap Problem\nobreakspace  {}5.17\else \numberline {5.17}Problem\fi }{169}{problem.5.17}\protected@file@percent }
\@writefile{loe}{\contentsline {problem}{\ifthmt@listswap Problem\nobreakspace  {}5.18\else \numberline {5.18}Problem\fi }{169}{problem.5.18}\protected@file@percent }
\newlabel{problem:5_18}{{5.18}{169}{}{problem.5.18}{}}
\@writefile{loe}{\contentsline {problem}{\ifthmt@listswap Problem\nobreakspace  {}5.19\else \numberline {5.19}Problem\fi }{169}{problem.5.19}\protected@file@percent }
\@writefile{loe}{\contentsline {problem}{\ifthmt@listswap Problem\nobreakspace  {}5.20\else \numberline {5.20}Problem\fi }{170}{problem.5.20}\protected@file@percent }
\@writefile{loe}{\contentsline {problem}{\ifthmt@listswap Problem\nobreakspace  {}5.21\else \numberline {5.21}Problem\fi }{170}{problem.5.21}\protected@file@percent }
\@writefile{loe}{\contentsline {problem}{\ifthmt@listswap Problem\nobreakspace  {}5.22\else \numberline {5.22}Problem\fi }{171}{problem.5.22}\protected@file@percent }
\@writefile{loe}{\contentsline {problem}{\ifthmt@listswap Problem\nobreakspace  {}5.23\else \numberline {5.23}Problem\fi }{171}{problem.5.23}\protected@file@percent }
\@writefile{loe}{\contentsline {problem}{\ifthmt@listswap Problem\nobreakspace  {}5.24\else \numberline {5.24}Problem\fi }{171}{problem.5.24}\protected@file@percent }
\@writefile{loe}{\contentsline {problem}{\ifthmt@listswap Problem\nobreakspace  {}5.25\else \numberline {5.25}Problem\fi }{172}{problem.5.25}\protected@file@percent }
\@writefile{loe}{\contentsline {problem}{\ifthmt@listswap Problem\nobreakspace  {}5.26\else \numberline {5.26}Problem\fi }{173}{problem.5.26}\protected@file@percent }
\@writefile{loe}{\contentsline {problem}{\ifthmt@listswap Problem\nobreakspace  {}5.27\else \numberline {5.27}Problem\fi }{173}{problem.5.27}\protected@file@percent }
\@writefile{loe}{\contentsline {problem}{\ifthmt@listswap Problem\nobreakspace  {}5.28\else \numberline {5.28}Problem\fi }{173}{problem.5.28}\protected@file@percent }
\@writefile{loe}{\contentsline {problem}{\ifthmt@listswap Problem\nobreakspace  {}5.29\else \numberline {5.29}Problem\fi }{173}{problem.5.29}\protected@file@percent }
\@writefile{loe}{\contentsline {problem}{\ifthmt@listswap Problem\nobreakspace  {}5.30\else \numberline {5.30}Problem\fi }{174}{problem.5.30}\protected@file@percent }
\newlabel{problem:5_30}{{5.30}{174}{}{problem.5.30}{}}
\@writefile{loe}{\contentsline {problem}{\ifthmt@listswap Problem\nobreakspace  {}5.31\else \numberline {5.31}Problem\fi }{174}{problem.5.31}\protected@file@percent }
\@writefile{loe}{\contentsline {problem}{\ifthmt@listswap Problem\nobreakspace  {}5.32\else \numberline {5.32}Problem\fi }{175}{problem.5.32}\protected@file@percent }
\@writefile{loe}{\contentsline {problem}{\ifthmt@listswap Problem\nobreakspace  {}5.33\else \numberline {5.33}Problem\fi }{176}{problem.5.33}\protected@file@percent }
\@writefile{loe}{\contentsline {problem}{\ifthmt@listswap Problem\nobreakspace  {}5.34\else \numberline {5.34}Problem\fi }{177}{problem.5.34}\protected@file@percent }
\@writefile{loe}{\contentsline {problem}{\ifthmt@listswap Problem\nobreakspace  {}5.35\else \numberline {5.35}Problem\fi }{177}{problem.5.35}\protected@file@percent }
\newlabel{problem:5_35}{{5.35}{177}{}{problem.5.35}{}}
\@writefile{loe}{\contentsline {problem}{\ifthmt@listswap Problem\nobreakspace  {}5.36\else \numberline {5.36}Problem\fi }{179}{problem.5.36}\protected@file@percent }
\gdef \@abspage@last{183}
